10 R Modulo 4.1 - Estrutura da Comunidade | Fundamentos de Ecologia Numérica
…
#Exportando dados para Excel----
library(openxlsx)
write.xlsx(m_wide, file = "tabela da comunidade.xlsx", rowNames = FALSE)
wb <- loadWorkbook("tabela da comunidade.xlsx")
writeData(wb, sheet = "Sheet 1", x = m_wide)
saveWorkbook(wb, "tabela da comunidade.xlsx", overwrite = TRUE)

#Escolher sumário de uma variavel----
m
var <- "as.bimac"
m[m$Variable == var, "mean"] #cada valor de var
summary(m[m$Variable == var, "mean"]) #sumário dos valores de var

## # A tibble: 315 × 6
##    Area   Habitat Ponto Variable  mean    sd
##    <chr>  <chr>   <chr> <chr>    <dbl> <dbl>
##  1 Buique acude   GU    ap.davis  0     0   
##  2 Buique acude   GU    as.bimac  5.25  5.74
##  3 Buique acude   GU    as.fasci  0.5   1   
##  4 Buique acude   GU    ch.bimac  0     0   
##  5 Buique acude   GU    ci.ocela  0     0   
##  6 Buique acude   GU    ci.orien  0     0   
##  7 Buique acude   GU    co.macro  0     0   
##  8 Buique acude   GU    co.heter  0     0   
##  9 Buique acude   GU    cr.menez  0     0   
## 10 Buique acude   GU    cu.lepid  0     0   
## # ℹ 305 more rows
## # A tibble: 35 × 10
##    Variable Buique_acude_GU Buique_acude_MU Buique_rio_ET Buique_rio_PC
##    <chr>    <chr>           <chr>           <chr>         <chr>        
##  1 ap.davis 0(0)            0(0)            0(NA)         9(11.5)      
##  2 as.bimac 5.2(5.7)        214.2(218.1)    3(NA)         42(34)       
##  3 as.fasci 0.5(1)          0(0)            0(NA)         8(8.5)       
##  4 ch.bimac 0(0)            0(0)            0(NA)         0(0)         
##  5 ci.ocela 0(0)            0(0)            0(NA)         2(2)         
##  6 ci.orien 0(0)            0(0)            0(NA)         0(0)         
##  7 co.macro 0(0)            0(0)            0(NA)         0(0)         
##  8 co.heter 0(0)            0(0)            0(NA)         0(0)         
##  9 cr.menez 0(0)            0(0)            0(NA)         0(0)         
## 10 cu.lepid 0(0)            0(0)            0(NA)         7(12.1)      
## # ℹ 25 more rows
## # ℹ 5 more variables: Serido_acude_TA <chr>, Serido_acude_ZA <chr>,
## #   Serido_rio_CC <chr>, Serido_rio_CP <chr>, Serido_rio_CT <chr>
##     Variable Buique_acude_GU Buique_acude_MU Buique_rio_ET Buique_rio_PC
## 1   ap.davis            0(0)            0(0)         0(NA)       9(11.5)
## 2   as.bimac        5.2(5.7)    214.2(218.1)         3(NA)        42(34)
## 3   as.fasci          0.5(1)            0(0)         0(NA)        8(8.5)
## 4   ch.bimac            0(0)            0(0)         0(NA)          0(0)
## 5   ci.ocela            0(0)            0(0)         0(NA)          2(2)
…
