13 R Modulo 4.2 - Estrutura do habitat | Fundamentos de Ecologia Numérica
…
summaries
summary_table <- do.call(rbind, lapply(summaries, as.data.frame.list))
round(summary_table, 2)
#sink(file = "summary_h.txt", split = TRUE)
round(summary_table[order(summary_table$Mean, decreasing = FALSE), ], 2)
#sink()

#Tabela limpa
summary_table <- cbind(Variable = rownames(summary_table), summary_table)
rownames(summary_table) <- NULL
colnames(summary_table) <- c("Variable", "Min", "Q1", "Median", "Mean", "Q3", "Max")
summary_table

## # A tibble: 23 × 7
##    Variable   Buique_acude_GU    Buique_acude_MU Buique_rio_PC   Serido_acude_TA
##    <chr>      <chr>              <chr>           <chr>           <chr>          
##  1 h.macroph  12.8(0-46.7)       0(0-0)          0(0-0)          35.7(5.8-54.8) 
##  2 h.grass    5.2(0-13.3)        34.5(5.6-54)    0.7(0-2)        2.1(0-8.1)     
##  3 h.subveg   7.3(0-26)          11.2(0-36.6)    0(0-0)          4.2(0-16.7)    
##  4 h.overhveg 0.9(0-3.3)         0(0-0)          0(0-0)          10.4(0-33.3)   
##  5 h.litter   0(0-0)             1.9(0.4-5)      0.4(0.3-0.5)    6.5(0.6-23.7)  
##  6 h.roots    0(0-0)             0(0-0)          0(0-0)          0(0-0)         
##  7 s.mud      94.4(87.8-98)      52.7(20.6-91.8) 40.5(33.7-48.9) 48.1(5-81.7)   
##  8 s.sand     3.9(2-6.7)         45.1(3.2-77)    55.6(47.9-63)   45.5(8.3-95)   
##  9 m.river    212.7(212.7-212.7) 214(214-214)    196.8(196.8-19… 110.2(110.2-11…
## 10 m.stream   32.3(32.3-32.3)    19.8(19.8-19.8) 13.8(13.8-13.8) 37.1(37.1-37.1)
## # ℹ 13 more rows
## # ℹ 2 more variables: Serido_rio_CP <chr>, Serido_rio_CT <chr>
##       Variable    Buique_acude_GU    Buique_acude_MU      Buique_rio_PC
## 1    h.macroph       12.8(0-46.7)             0(0-0)             0(0-0)
## 2      h.grass        5.2(0-13.3)       34.5(5.6-54)           0.7(0-2)
## 3     h.subveg          7.3(0-26)       11.2(0-36.6)             0(0-0)
## 4   h.overhveg         0.9(0-3.3)             0(0-0)             0(0-0)
## 5     h.litter             0(0-0)         1.9(0.4-5)       0.4(0.3-0.5)
## 6      h.roots             0(0-0)             0(0-0)             0(0-0)
…
